{
  "version": "14.0.4",
  "vulnerabilities": [
    {
      "id": "590622239a5ec7fd6baadab0d3cfcfdef04833fffa8191e199de8949bc3f81a3",
      "category": "sast",
      "message": "Check when opening files - can an attacker redirect it (via symlinks), force the opening of special file type (e.g., device files), move things around to create a race condition, control its ancestors, or change its contents? (CWE-362).",
      "cve": "subdir/utils.c:bab681140fcc8fc3085b6bba74081b44ea145c1c98b5e70cf19ace2417d30770:CWE-362",
      "severity": "Low",
      "scanner": {
        "id": "flawfinder",
        "name": "Flawfinder"
      },
      "location": {
        "file": "subdir/utils.c",
        "start_line": 8
      },
      "identifiers": [
        {
          "type": "flawfinder_func_name",
          "name": "Flawfinder - fopen",
          "value": "fopen"
        },
        {
          "type": "cwe",
          "name": "CWE-362",
          "value": "362",
          "url": "https://cwe.mitre.org/data/definitions/362.html"
        }
      ]
    }
  ],
  "dependency_files": [],
  "scan": {
    "analyzer": {
      "id": "flawfinder",
      "name": "Flawfinder",
      "url": "https://gitlab.com/gitlab-org/security-products/analyzers/flawfinder",
      "vendor": {
        "name": "GitLab"
      },
      "version": "3.2.7"
    },
    "scanner": {
      "id": "flawfinder",
      "name": "Flawfinder",
      "url": "https://www.dwheeler.com/flawfinder",
      "vendor": {
        "name": "GitLab"
      },
      "version": "2.0.19"
    },
    "type": "sast",
    "start_time": "2023-04-24T01:40:53",
    "end_time": "2023-04-24T01:40:53",
    "status": "success"
  }
}
